geneID	BINCODE	BINNAME	DESCRIPTION	Similarity
Vitvi07g00457	3.1.1.1	minor CHO metabolism.raffinose family.galactinol synthases.known	galactinol synthase 1 | Chr2:19369049-19370372 REVERSE LENGTH=344 | 201606	0.6993826219304556
Vitvi07g02242	3.1.1.1	minor CHO metabolism.raffinose family.galactinol synthases.known	galactinol synthase 1 | Chr2:19369049-19370372 REVERSE LENGTH=344 | 201606	0.6402882921634218
Vitvi14g00063	3.1.1.1	minor CHO metabolism.raffinose family.galactinol synthases.known	galactinol synthase 1 | Chr2:19369049-19370372 REVERSE LENGTH=344 | 201606	0.8650156136660148
Vitvi11g00243	10.5.3	cell wall.cell wall proteins.LRR	Leucine-rich repeat (LRR) family protein | Chr4:14418826-14420073 FORWARD LENGTH=415 | 201606	0.9191795452718108
Vitvi12g00586	10.6.2	cell wall.degradation.mannan-xylose-arabinose-fucose	xyloglucan endotransglucosylase/hydrolase 9 | Chr4:1416107-1417197 FORWARD LENGTH=262 | 201606	0.8053245899856657
Vitvi07g02226	10.6.3	cell wall.degradation.pectate lyases and polygalacturonases	Pectin lyase-like superfamily protein | Chr3:9777025-9780267 FORWARD LENGTH=470 | 201606	0.9127332454059074
Vitvi06g00790	10.7	cell wall.modification	expansin A8 | Chr2:16949121-16950472 REVERSE LENGTH=253 | 201606	-0.08868676948734255
Vitvi01g00784	10.7	cell wall.modification	xyloglucan:xyloglucosyl transferase 33 | Chr1:3479257-3480957 REVERSE LENGTH=310 | 201606	0.9732363516130986
Vitvi08g00886	15.2	metal handling.binding, chelation and storage	Heavy metal transport/detoxification superfamily protein | Chr3:21064199-21064922 REVERSE LENGTH=166 | 201606	0.6354138645605785
Vitvi06g00533	17.1.2	hormone metabolism.abscisic acid.signal transduction	highly ABA-induced PP2C protein 3 | Chr2:12608855-12610124 FORWARD LENGTH=362 | 201606	0.9391288699667139
Vitvi01g02286	17.2.3	hormone metabolism.auxin.induced-regulated-responsive-activated	SAUR-like auxin-responsive protein family | Chr5:20644780-20645331 FORWARD LENGTH=183 | 201606	0.9310712295775562
Vitvi17g00601	17.6.3	hormone metabolism.gibberelin.induced-regulated-responsive-activated	Gibberellin-regulated family protein | Chr1:28053378-28053893 FORWARD LENGTH=101 | 201606	0.7885823343263187
Vitvi02g00695	20.1	stress.biotic	Polyketide cyclase/dehydrase and lipid transport superfamily protein | Chr4:9928792-9929367 FORWARD LENGTH=191 | 201606	0.9836995811596089
Vitvi04g01470	20.1.7.5	stress.biotic.PR-proteins.PR5 (thaumatin-like proteins)	Pathogenesis-related thaumatin superfamily protein | Chr4:17039472-17040976 REVERSE LENGTH=301 | 201606	0.8797657937045443
Vitvi02g01273	20.1.7.6	stress.biotic.PR-proteins.PR6 (proteinase inhibitors)	proteinase inhibitor I4%2C serpin (DUF716) | Chr1:20602895-20603797 FORWARD LENGTH=300 | 201606	0.518698256624367
Vitvi04g01794	20.2.1	stress.abiotic.heat	17.6 kDa class II heat shock protein | Chr5:3882409-3882876 REVERSE LENGTH=155 | 201606	-0.2017292625047442
Vitvi04g01799	20.2.1	stress.abiotic.heat	17.6 kDa class II heat shock protein | Chr5:3882409-3882876 REVERSE LENGTH=155 | 201606	-0.14223583311921506
Vitvi04g01801	20.2.1	stress.abiotic.heat	17.6 kDa class II heat shock protein | Chr5:3882409-3882876 REVERSE LENGTH=155 | 201606	-0.08144168705605459
Vitvi04g00135	20.2.1	stress.abiotic.heat	17.6 kDa class II heat shock protein | Chr5:3882409-3882876 REVERSE LENGTH=155 | 201606	0.6974356859302133
Vitvi15g01034	20.2.1	stress.abiotic.heat	BCL-2-associated athanogene 6 | Chr2:18986586-18989827 FORWARD LENGTH=1043 | 201606	0.9519990803992389
Vitvi13g02017	20.2.1	stress.abiotic.heat	heat shock protein 18.2 | Chr5:24062632-24063117 FORWARD LENGTH=161 | 201606	0.7039450617588194
Vitvi13g02018	20.2.1	stress.abiotic.heat	heat shock protein 18.2 | Chr5:24062632-24063117 FORWARD LENGTH=161 | 201606	0.5878993846621091
Vitvi13g00451	20.2.1	stress.abiotic.heat	heat shock protein 18.2 | Chr5:24062632-24063117 FORWARD LENGTH=161 | 201606	0.5895903444782693
Vitvi16g01352	20.2.1	stress.abiotic.heat	heat shock protein 21 | Chr4:13819048-13819895 REVERSE LENGTH=227 | 201606	0.8746980803392973
Vitvi11g00724	20.2.1	stress.abiotic.heat	heat shock protein 70B | Chr1:5502386-5504326 REVERSE LENGTH=646 | 201606	0.6970061999046315
Vitvi05g00486	20.2.1	stress.abiotic.heat	heat-shock protein 70T-2 | Chr2:13651720-13653411 REVERSE LENGTH=563 | 201606	0.8957704651336794
Vitvi09g00599	20.2.1	stress.abiotic.heat	HSP20-like chaperones superfamily protein | Chr1:19574783-19575766 REVERSE LENGTH=232 | 201606	0.8620016533025986
Vitvi13g02016	20.2.1	stress.abiotic.heat	HSP20-like chaperones superfamily protein | Chr1:19980510-19980983 FORWARD LENGTH=157 | 201606	0.4876475962205984
Vitvi12g02138	20.2.1	stress.abiotic.heat	HSP20-like chaperones superfamily protein | Chr4:6370537-6371124 FORWARD LENGTH=195 | 201606	0.7315410753453216
Vitvi06g00605	26.1	misc.cytochrome P450	cytochrome P450%2C family 86%2C subfamily A%2C polypeptide 1 | Chr5:23765999-23767997 REVERSE LENGTH=513 | 201606	0.12328278948323634
Vitvi13g00143	26.12	misc.peroxidases	Peroxidase superfamily protein | Chr5:1579142-1580819 REVERSE LENGTH=324 | 201606	0.5282804424131079
Vitvi18g02592	26.12	misc.peroxidases	Peroxidase superfamily protein | Chr5:1579142-1580819 REVERSE LENGTH=324 | 201606	0.5598122153968075
Vitvi09g01282	26.13	misc.acid and other phosphatases	HAD superfamily%2C subfamily IIIB acid phosphatase | Chr4:12901736-12902882 REVERSE LENGTH=260 | 201606	0.8864329577608486
Vitvi16g00309	26.19	misc.plastocyanin-like	Cupredoxin superfamily protein | Chr5:2364827-2365536 REVERSE LENGTH=192 | 201606	0.37667794475788074
Vitvi13g02024	26.2	misc.UDP glucosyl and glucoronyl transferases	heat shock protein 18.2 | Chr5:24062632-24063117 FORWARD LENGTH=161 | 201606	0.730837850861157
Vitvi03g01162	26.2	misc.UDP glucosyl and glucoronyl transferases	UDP-glucosyl transferase 85A3 | Chr1:7900522-7902332 REVERSE LENGTH=488 | 201606	0.9033699568534758
Vitvi02g00532	26.21	misc.protease inhibitor/seed storage/lipid transfer protein (LTP) family protein	Bifunctional inhibitor/lipid-transfer protein/seed storage 2S albumin superfamily protein | Chr2:18626377-18626781 FORWARD LENGTH=134 | 201606	0.9838513352960385
Vitvi13g02129	26.28	misc.GDSL-motif lipase	GDSL-like Lipase/Acylhydrolase superfamily protein | Chr5:915650-918326 FORWARD LENGTH=359 | 201606	0.14413545522990756
Vitvi03g00325	27.3.25	RNA.regulation of transcription.MYB domain transcription factor family	RAD-like 1 | Chr4:18271457-18271857 REVERSE LENGTH=100 | 201606	0.5342420561363307
Vitvi03g00318	27.3.25	RNA.regulation of transcription.MYB domain transcription factor family	RAD-like 6 | Chr1:28245073-28245453 REVERSE LENGTH=126 | 201606	0.06811816108874424
Vitvi14g01926	27.3.6	RNA.regulation of transcription.basic helix-loop-helix family (bHLH)	basic helix-loop-helix (bHLH) DNA-binding family protein | Chr3:10855781-10856313 REVERSE LENGTH=92 | 201606	0.241840432143692
Vitvi06g00533	29.4	protein.postranslational modification	highly ABA-induced PP2C protein 3 | Chr2:12608855-12610124 FORWARD LENGTH=362 | 201606	0.9391288699667139
Vitvi13g02005	29.5.1	protein.degradation.subtilases	Subtilisin-like serine endopeptidase family protein | Chr5:23755787-23758600 FORWARD LENGTH=710 | 201606	-0.00783210561615122
Vitvi01g02030	29.5.11.4.2	protein.degradation.ubiquitin.E3.RING	RING/U-box superfamily protein | Chr1:25442486-25442887 FORWARD LENGTH=133 | 201606	0.9749006239286194
Vitvi14g01942	29.5.7	protein.degradation.metalloprotease	FTSH protease 6 | Chr5:4951071-4952777 REVERSE LENGTH=514 | 201606	0.8064365157711724
Vitvi11g00724	29.6	protein.folding	heat shock protein 70B | Chr1:5502386-5504326 REVERSE LENGTH=646 | 201606	0.6970061999046315
Vitvi12g02419	30.2.99	signalling.receptor kinases.misc	Receptor-like protein kinase-related family protein | Chr3:7771065-7772137 FORWARD LENGTH=252 | 201606	0.5518936734271982
Vitvi12g01880	33.1	development.storage proteins	RmlC-like cupins superfamily protein | Chr1:2404300-2405863 REVERSE LENGTH=356 | 201606	-0.5167178321439141
Vitvi01g00815	33.99	development.unspecified	Nodulin MtN21 family protein IPR000620 Protein of unknown function DUF6, transmembrane	0.8369235426946386
Vitvi08g01112	34.16	transport.ABC transporters and multidrug resistance systems	ABC-2 type transporter family protein | Chr2:15673555-15675822 REVERSE LENGTH=755 | 201606	0.0783807650762367
Vitvi01g00682	34.4	transport.nitrate	nitrate transporter2.5 | Chr1:4416405-4418337 FORWARD LENGTH=502 | 201606	0.964620790679675
Vitvi17g00078	35.1	not assigned.no ontology	HXXXD-type acyl-transferase family protein | Chr5:16431448-16433086 FORWARD LENGTH=457 | 201606	-0.012891087448230198
Vitvi18g02709	35.1.40	not assigned.no ontology.glycine rich proteins	Cupredoxin superfamily protein | Chr2:6873666-6874701 REVERSE LENGTH=257 | 201606	0.665663595130309
Vitvi04g00501	35.2	not assigned.unknown	Bifunctional inhibitor/lipid-transfer protein/seed storage 2S albumin superfamily protein | Chr4:7421279-7421668 REVERSE LENGTH=129 | 201606	-0.40376529775772596
Vitvi16g01470	35.2	not assigned.unknown	Chalcone and stilbene synthase family protein | Chr5:4488762-4490035 FORWARD LENGTH=395 | 201606	0.7300578149630532
Vitvi02g01324	35.2	not assigned.unknown	Disease resistance-responsive (dirigent-like protein) family protein | Chr4:12339152-12339715 REVERSE LENGTH=187 | 201606	-0.14283269347902228
Vitvi07g02214	35.2	not assigned.unknown	GATA transcription factor 22 IPR000679 Zinc finger, GATA-type	0.8659420131674287
Vitvi07g00380	35.2	not assigned.unknown	GATA transcription factor-like protein | Chr1:588367-589232 FORWARD LENGTH=247 | 201606	0.8125394142083666
Vitvi13g00405	35.2	not assigned.unknown	heat shock protein 18.2 | Chr5:24062632-24063117 FORWARD LENGTH=161 | 201606	0.38062077317572074
Vitvi13g00409	35.2	not assigned.unknown	heat shock protein 18.2 | Chr5:24062632-24063117 FORWARD LENGTH=161 | 201606	0.6410459211648597
Vitvi13g00410	35.2	not assigned.unknown	heat shock protein 18.2 | Chr5:24062632-24063117 FORWARD LENGTH=161 | 201606	0.6057546316289862
Vitvi16g01985	35.2	not assigned.unknown	highly ABA-induced PP2C protein 3 | Chr2:12608855-12610124 FORWARD LENGTH=362 | 201606	0.9483563813079459
Vitvi19g01760	35.2	not assigned.unknown	HSP20-like chaperones superfamily protein | Chr1:19980510-19980983 FORWARD LENGTH=157 | 201606	0.6956186268164297
Vitvi06g00561	35.2	not assigned.unknown	HSP20-like chaperones superfamily protein | Chr2:12633279-12633740 REVERSE LENGTH=153 | 201606	0.6971675662604976
Vitvi18g02423	35.2	not assigned.unknown	HSP20-like chaperones superfamily protein | Chr4:6370537-6371124 FORWARD LENGTH=195 | 201606	0.7897687304368765
Vitvi14g02990	35.2	not assigned.unknown	hypothetical protein | Chr3:10061633-10062481 FORWARD LENGTH=282 | 201606	0.9360341930320417
Vitvi05g01759	35.2	not assigned.unknown	Major allergen Mal d 1 IPR000916 Bet v I allergen	0.7597359502610925
Vitvi05g01758	35.2	not assigned.unknown	MLP-like protein 423 | Chr1:8500653-8501458 REVERSE LENGTH=155 | 201606	0.9585078041847201
Vitvi01g01921	35.2	not assigned.unknown		0.9162246226473296
Vitvi05g01779	35.2	not assigned.unknown		0.6981014805699556
Vitvi05g01780	35.2	not assigned.unknown		0.21264661361863657
Vitvi05g01931	35.2	not assigned.unknown		0.11121040111224245
Vitvi05g01933	35.2	not assigned.unknown		0.7388606502578198
Vitvi10g01886	35.2	not assigned.unknown		0.9314391229737345
Vitvi13g00387	35.2	not assigned.unknown		0.9291930774401963
Vitvi14g01381	35.2	not assigned.unknown		0.9214711608276813
Vitvi17g01596	35.2	not assigned.unknown		0.6447569940428318
Vitvi18g02607	35.2	not assigned.unknown		-0.24417938874120937
Vitvi19g00581	35.2	not assigned.unknown		0.768738215223279
Vitvi13g00122	35.2	not assigned.unknown	neuronal PAS domain protein | Chr2:16867385-16868961 FORWARD LENGTH=496 | 201606	0.6472121913002312
Vitvi17g01318	35.2	not assigned.unknown	NFU1 iron-sulfur cluster protein | Chr5:2316064-2316641 FORWARD LENGTH=165 | 201606	0.8693426064004915
Vitvi03g01503	35.2	not assigned.unknown	Organ-specific protein S2	-0.48096127223804075
Vitvi02g01406	35.2	not assigned.unknown	osmotin 34 | Chr4:7025127-7026113 REVERSE LENGTH=244 | 201606	-0.3440315404574825
Vitvi08g02274	35.2	not assigned.unknown	plant/protein | Chr3:3091225-3091674 REVERSE LENGTH=149 | 201606	0.7904029596911404
Vitvi05g00011	35.2	not assigned.unknown	Pollen Ole e 1 allergen and extensin family protein | Chr3:5676904-5677788 FORWARD LENGTH=180 | 201606	0.7491294926802705
Vitvi02g01273	35.2	not assigned.unknown	proteinase inhibitor I4%2C serpin (DUF716) | Chr1:20602895-20603797 FORWARD LENGTH=300 | 201606	0.518698256624367
Vitvi08g00768	35.2	not assigned.unknown	PYR1-like 4 | Chr2:16050251-16050874 FORWARD LENGTH=207 | 201606	0.9247137643554825
Vitvi12g00576	35.2	not assigned.unknown	Terpenoid cyclases/Protein prenyltransferases superfamily protein | Chr3:9430805-9433844 FORWARD LENGTH=598 | 201606	0.9302368582387187
Vitvi07g00259	35.2	not assigned.unknown	Thioredoxin superfamily protein | Chr1:698207-698515 REVERSE LENGTH=102 | 201606	0.7988939210955366
Vitvi06g01346	35.2	not assigned.unknown	tonoplast intrinsic protein 1%3B3 | Chr4:625092-625850 REVERSE LENGTH=252 | 201606	-0.17637026869769779
Vitvi14g01525	35.2	not assigned.unknown	Unknown Protein	0.7933054223203736
Vitvi17g00152	35.2	not assigned.unknown	von willebrand factor A domain protein | Chr5:20505433-20506308 REVERSE LENGTH=291 | 201606	0.9640487116710784
